@startuml courts_diagram

Reservation "*" o--> "1" Court
User "*" o--> "*" Role
User "1" *--> "*" Reservation
Court "*" o--> "1" Surface
Reservation "*" o--> "1" GameType

class Court {
    id: int
    name: string
}

class Reservation {
    id: int
    from: LocalDateTime
    to: LocalDateTime
    price: double
}

class User {
    id: int
    name: string
    email: string
    phone: string
    password: string
}

class Role {
    id: int
    role: RoleType
}

class Surface {
    id: int
    pricePerMinute: double
}

class GameType {
    gameTypeName: name
    priceModifier: double
}

enum RoleType {
    ADMIN
    USER
}




@enduml